{
	"ImportPath": "github.com/quorumsco/communication",
	"GoVersion": "go1.4",
	"GodepVersion": "v72",
	"Deps": [
		{
			"ImportPath": "github.com/codegangsta/cli",
			"Comment": "v1.18.0-47-g168c954",
			"Rev": "168c95418e66e019fe17b8f4f5c45aa62ff80e23"
		},
		{
			"ImportPath": "github.com/fatih/color",
			"Comment": "v0.2.0",
			"Rev": "87d4004f2ab62d0d255e0a38f1680aa534549fe3"
		},
		{
			"ImportPath": "github.com/go-sql-driver/mysql",
			"Comment": "v1.2-198-g0b58b37",
			"Rev": "0b58b37b664c21f3010e836f1b931e1d0b0b0685"
		},
		{
			"ImportPath": "github.com/iogo-framework/logs",
			"Rev": "0247b60e20020bc43a369063d97b55493ec673c1"
		},
		{
			"ImportPath": "github.com/jinzhu/gorm",
			"Comment": "v1.0-50-ga646b13",
			"Rev": "a646b13548ec0aa812fe805b2780f460dd2771b6"
		},
		{
			"ImportPath": "github.com/jinzhu/inflection",
			"Rev": "8f4d3a0d04ce0b7c0cf3126fb98524246d00d102"
		},
		{
			"ImportPath": "github.com/jmoiron/sqlx",
			"Comment": "sqlx-v1.1-73-g7396209",
			"Rev": "7396209bbeada6a4fcc28aa9408f89b2e71cac39"
		},
		{
			"ImportPath": "github.com/jmoiron/sqlx/reflectx",
			"Comment": "sqlx-v1.1-73-g7396209",
			"Rev": "7396209bbeada6a4fcc28aa9408f89b2e71cac39"
		},
		{
			"ImportPath": "github.com/lib/pq",
			"Comment": "go1.0-cutoff-111-g80f8150",
			"Rev": "80f8150043c80fb52dee6bc863a709cdac7ec8f8"
		},
		{
			"ImportPath": "github.com/lib/pq/oid",
			"Comment": "go1.0-cutoff-111-g80f8150",
			"Rev": "80f8150043c80fb52dee6bc863a709cdac7ec8f8"
		},
		{
			"ImportPath": "github.com/mattn/go-colorable",
			"Comment": "v0.0.6",
			"Rev": "ed8eb9e318d7a84ce5915b495b7d35e0cfe7b5a8"
		},
		{
			"ImportPath": "github.com/mattn/go-isatty",
			"Rev": "66b8e73f3f5cda9f96b69efd03dd3d7fc4a5cdb8"
		},
		{
			"ImportPath": "github.com/mattn/go-sqlite3",
			"Comment": "v1.2.0-61-geac1dfa",
			"Rev": "eac1dfa2a61ebccaa117538a5bb12044f6700cd0"
		},
		{
			"ImportPath": "github.com/quorumsco/cmd",
			"Rev": "fe20a849183125d866e52333be2a123cefa4ad05"
		},
		{
			"ImportPath": "github.com/quorumsco/databases",
			"Rev": "89b2e85c41dbdacfa0d16397ead3d4501f00d8e9"
		},
		{
			"ImportPath": "github.com/quorumsco/forms/models",
			"Rev": "be323384a1fb85244aa47ba41bf6522d21ea54f1"
		},
		{
			"ImportPath": "github.com/quorumsco/logs",
			"Rev": "0247b60e20020bc43a369063d97b55493ec673c1"
		},
		{
			"ImportPath": "github.com/quorumsco/settings",
			"Rev": "a95939ef2b836afbbc8d2d5c5ff06e1a3a6c4840"
		},
		{
			"ImportPath": "golang.org/x/net/context",
			"Rev": "a6577fac2d73be281a500b310739095313165611"
		},
		{
			"ImportPath": "golang.org/x/sys/unix",
			"Rev": "d4feaf1a7e61e1d9e79e6c4e76c6349e9cab0a03"
		}
	]
}
